Date,Sales
01-Jan-23,266
01-Feb-23,145.9
01-Mar-23,183.1
01-Apr-23,119.3
01-May-23,180.3
01-Jun-23,168.5
01-Jul-23,231.8
01-Aug-23,224.5
01-Sep-23,192.8
01-Oct-23,122.9
01-Nov-23,336.5
01-Dec-23,185.9
02-Jan-23,194.3
02-Feb-23,149.5
02-Mar-23,210.1
02-Apr-23,273.3
02-May-23,191.4
02-Jun-23,287
02-Jul-23,226
02-Aug-23,303.6
02-Sep-23,289.9
02-Oct-23,421.6
02-Nov-23,264.5
02-Dec-23,342.3
03-Jan-23,339.7
03-Feb-23,440.4
03-Mar-23,315.9
03-Apr-23,439.3
03-May-23,401.3
03-Jun-23,437.4
03-Jul-23,575.5
03-Aug-23,407.6
03-Sep-23,682
03-Oct-23,475.3
03-Nov-23,581.3
03-Dec-23,646.9
